underserviced_areas
…
## # A tibble: 0 x 2
## # Groups:   stat_name [0]
## # ... with 2 variables: stat_name <chr>, n <int>

sub.sml.test %>% 
  select(stat_name, free_crossover) %>% 
  distinct() %>% 
  filter(!free_crossover)

## # A tibble: 87 x 2
##    stat_name                            free_crossover
##    <chr>                                <lgl>         
##  1 bmt_4 avenue_25th st                 FALSE         
##  2 bmt_4 avenue_prospect av             FALSE         
##  3 bmt_4 avenue_union st                FALSE         
##  4 ind_6 avenue_23rd st                 FALSE         
##  5 ind_6 avenue_bergen st               FALSE         
##  6 ind_8 avenue_116th st                FALSE         
##  7 ind_8 avenue_135th st                FALSE         
##  8 ind_8 avenue_163rd st - amsterdam av FALSE         
##  9 ind_8 avenue_50th st                 FALSE         
## 10 bmt_broadway_23rd st                 FALSE         
## # ... with 77 more rows
…
## # A tibble: 4 x 3
## # Groups:   ada, free_crossover [4]
##   ada   free_crossover     n
##   <lgl> <lgl>          <int>
## 1 FALSE FALSE             79
## 2 FALSE TRUE             302
## 3 TRUE  FALSE              8
## 4 TRUE  TRUE              76

subway.ent.exit %>% 
  filter(ada & !free_crossover)

## # A tibble: 53 x 30
##    division line  station_name station_latitude station_longitu~ route1
##    <chr>    <chr> <chr>                   <dbl>            <dbl> <chr> 
##  1 IND      8 Av~ 50th St                  40.8            -74.0 C     
##  2 IND      8 Av~ 50th St                  40.8            -74.0 C     
##  3 IND      8 Av~ 50th St                  40.8            -74.0 C     
##  4 IND      8 Av~ 50th St                  40.8            -74.0 C     
##  5 IND      8 Av~ 50th St                  40.8            -74.0 C     
##  6 IND      8 Av~ 50th St                  40.8            -74.0 C     
##  7 IND      8 Av~ 50th St                  40.8            -74.0 C     
##  8 IND      8 Av~ 50th St                  40.8            -74.0 C     
##  9 IND      8 Av~ 50th St                  40.8            -74.0 C     
## 10 IND      8 Av~ 50th St                  40.8            -74.0 C     
## # ... with 43 more rows, and 24 more variables: route2 <chr>,
## #   route3 <chr>, route4 <chr>, route5 <chr>, route6 <chr>, route7 <chr>,
## #   route8 <dbl>, route9 <dbl>, route10 <dbl>, route11 <dbl>,
## #   entrance_type <chr>, entry <chr>, exit_only <chr>, vending <chr>,
## #   staffing <chr>, staff_hours <chr>, ada <lgl>, ada_notes <chr>,
## #   free_crossover <lgl>, north_south_street <chr>,
## #   east_west_street <chr>, corner <chr>, entrance_latitude <dbl>,
## #   entrance_longitude <dbl>
…
sub.boro.nogeo

# A tibble: 750 x 8
   stat_name ada   route_name BoroName CT2010 BoroCT2010 NTANa~ Shape_Area
 * <chr>     <lgl> <chr>      <chr>    <fct>  <fct>      <fct>       <dbl>
 1 irt_42nd~ FALSE GS         manhatt~ 009400 1009400    Midto~   1646379.
 2 bmt_fran~ FALSE FS         brooklyn 021300 3021300    Crown~   1989395.
 3 bmt_fran~ TRUE  FS         brooklyn 030500 3030500    Crown~   3474329.
 4 ind_rock~ FALSE H          queens   093800 4093800    Breez~   8701238.
 5 ind_rock~ FALSE H          queens   094202 4094202    Hamme~   7609021.
 6 ind_rock~ FALSE H          queens   094201 4094201    Breez~   3813369.
 7 ind_rock~ TRUE  H          queens   093800 4093800    Breez~   8701238.
 8 bmt_fran~ TRUE  FS         brooklyn 022700 3022700    Clint~   2588318.
 9 ind_rock~ FALSE H          queens   107201 4107201    Breez~  14756842.
10 bmt_brig~ TRUE  FS         brooklyn 032700 3032700    Prosp~   1904788.
# ... with 740 more rows
…
neigh.stat.count %>% 
  arrange(desc(tot_stat))

# A tibble: 125 x 5
# Groups:   BoroName [4]
   BoroName  NTAName                         tot_stat ada_stat ada_percent
   <chr>     <fct>                              <int>    <int>       <dbl>
 1 manhattan Midtown-Midtown South                 55       32       58.2 
 2 manhattan SoHo-TriBeCa-Civic Center-Litt~       32        8       25   
 3 manhattan Battery Park City-Lower Manhat~       25       13       52   
 4 manhattan Hudson Yards-Chelsea-Flatiron-~       25       10       40   
 5 manhattan West Village                          22       13       59.1 
 6 brooklyn  Park Slope-Gowanus                    18        5       27.8 
 7 brooklyn  DUMBO-Vinegar Hill-Downtown Br~       16        6       37.5 
 8 queens    Hunters Point-Sunnyside-West M~       16        1        6.25
 9 manhattan Upper East Side-Carnegie Hill         14        2       14.3 
10 brooklyn  East New York                         13        2       15.4 
# ... with 115 more rows
…
